verilog/iladata.vcd
$date
        2018-Sep-20 08:32:48
$end
$version
        Vivado v2018.2 (64-bit)
$end
$timescale
        1ps
$end
$scope module dut $end
$var reg 32 " axi_dla_top_i/systolic_dla_top_8x8_0/inst/i_systolic_dla_top/reg_read_data [31:0] $end
$var reg 32 B axi_dla_top_i/systolic_dla_top_8x8_0/inst/i_systolic_dla_top/systolic_clr_and_plus_one [31:0] $end
$var reg 32 b axi_dla_top_i/systolic_dla_top_8x8_0/inst/i_systolic_dla_top/systolic_result [31:0] $end
$var reg 8 $" axi_dla_top_i/systolic_dla_top_8x8_0/inst/i_systolic_dla_top/systolic_update_w [7:0] $end
$var reg 32 ," axi_dla_top_i/systolic_dla_top_8x8_0/inst/i_systolic_dla_top/systolic_width_size [31:0] $end
$var reg 32 L" axi_dla_top_i/systolic_dla_top_8x8_0/inst/i_systolic_dla_top/systolic_accumulation_in [31:0] $end
$var reg 1 l" axi_dla_top_i/systolic_dla_top_8x8_0/inst/i_systolic_dla_top/deacc_sram_w_en $end
$var reg 1 m" axi_dla_top_i/systolic_dla_top_8x8_0/inst/i_systolic_dla_top/acc_sram_r_en $end
$var reg 32 n" axi_dla_top_i/systolic_dla_top_8x8_0/inst/i_systolic_dla_top/deacc_serial_en [31:0] $end
$var reg 32 0# axi_dla_top_i/systolic_dla_top_8x8_0/inst/i_systolic_dla_top/acc_shift_ctrl [31:0] $end
$var reg 32 P# axi_dla_top_i/systolic_dla_top_8x8_0/inst/i_systolic_dla_top/deacc_serial_input [31:0] $end
$var reg 32 p# axi_dla_top_i/systolic_dla_top_8x8_0/inst/i_systolic_dla_top/acc_serial_start [31:0] $end
$var reg 16 2$ axi_dla_top_i/systolic_dla_top_8x8_0/inst/i_systolic_dla_top/paddr [15:0] $end
$var reg 32 B$ axi_dla_top_i/systolic_dla_top_8x8_0/inst/i_systolic_dla_top/prdata [31:0] $end
$var reg 32 b$ axi_dla_top_i/systolic_dla_top_8x8_0/inst/i_systolic_dla_top/reg_write_data [31:0] $end
$var reg 2 $% axi_dla_top_i/systolic_dla_top_8x8_0/inst/i_systolic_dla_top/start_sytolic_array [1:0] $end
$var reg 64 &% axi_dla_top_i/systolic_dla_top_8x8_0/inst/i_systolic_dla_top/systolic_control1 [63:0] $end
$var reg 64 f% axi_dla_top_i/systolic_dla_top_8x8_0/inst/i_systolic_dla_top/systolic_dataflow_in [63:0] $end
$var reg 64 H& axi_dla_top_i/systolic_dla_top_8x8_0/inst/i_systolic_dla_top/systolic_dataflow_in_wgt [63:0] $end
$var reg 64 *' axi_dla_top_i/systolic_dla_top_8x8_0/inst/i_systolic_dla_top/systolic_dataflow_in_xin [63:0] $end
$var reg 32 j' axi_dla_top_i/systolic_dla_top_8x8_0/inst/i_systolic_dla_top/systolic_mac_en [31:0] $end
$var reg 32 ,( axi_dla_top_i/systolic_dla_top_8x8_0/inst/i_systolic_dla_top/systolic_result_en [31:0] $end
$var reg 16 L( axi_dla_top_i/systolic_dla_top_8x8_0/inst/i_systolic_dla_top/reg_addr [15:0] $end
$var reg 32 \( axi_dla_top_i/systolic_dla_top_8x8_0/inst/i_systolic_dla_top/pwdata [31:0] $end
$var reg 32 |( axi_dla_top_i/systolic_dla_top_8x8_0/inst/i_systolic_dla_top/systolic_height_size [31:0] $end
$var reg 16 >) axi_dla_top_i/systolic_dla_top_8x8_0/inst/i_systolic_dla_top/deacc_sram_waddr [15:0] $end
$var reg 32 N) axi_dla_top_i/systolic_dla_top_8x8_0/inst/i_systolic_dla_top/acc_serial_en [31:0] $end
$var reg 32 n) axi_dla_top_i/systolic_dla_top_8x8_0/inst/i_systolic_dla_top/systolic_result_start [31:0] $end
$var reg 32 0* axi_dla_top_i/systolic_dla_top_8x8_0/inst/i_systolic_dla_top/acc_serial_output [31:0] $end
$var reg 16 P* axi_dla_top_i/systolic_dla_top_8x8_0/inst/i_systolic_dla_top/acc_img_size [15:0] $end
$var reg 32 `* axi_dla_top_i/systolic_dla_top_8x8_0/inst/i_systolic_dla_top/deacc_sram_wdata [31:0] $end
$var reg 16 "+ axi_dla_top_i/systolic_dla_top_8x8_0/inst/i_systolic_dla_top/deacc_img_size [15:0] $end
$var reg 32 2+ axi_dla_top_i/systolic_dla_top_8x8_0/inst/i_systolic_dla_top/input_acc_size [31:0] $end
$var reg 32 R+ axi_dla_top_i/systolic_dla_top_8x8_0/inst/i_systolic_dla_top/input_xin_height_size [31:0] $end
$var reg 32 r+ axi_dla_top_i/systolic_dla_top_8x8_0/inst/i_systolic_dla_top/input_xin_width_size [31:0] $end
$var reg 64 4, axi_dla_top_i/systolic_dla_top_8x8_0/inst/i_systolic_dla_top/xin_serial_output [63:0] $end
$var reg 2 t, axi_dla_top_i/systolic_dla_top_8x8_0/inst/i_systolic_dla_top/sytolic_array_idle [1:0] $end
$var reg 8 v, axi_dla_top_i/systolic_dla_top_8x8_0/inst/i_systolic_dla_top/wgt_serial_en [7:0] $end
$var reg 8 ~, axi_dla_top_i/systolic_dla_top_8x8_0/inst/i_systolic_dla_top/xin_sram_r_en [7:0] $end
$var reg 8 (- axi_dla_top_i/systolic_dla_top_8x8_0/inst/i_systolic_dla_top/xin_shift_idle [7:0] $end
$var reg 16 0- axi_dla_top_i/systolic_dla_top_8x8_0/inst/i_systolic_dla_top/xin_img_width_size [15:0] $end
$var reg 8 @- axi_dla_top_i/systolic_dla_top_8x8_0/inst/i_systolic_dla_top/wgt_sram_r_en [7:0] $end
$var reg 64 H- axi_dla_top_i/systolic_dla_top_8x8_0/inst/i_systolic_dla_top/xin_serial_en [63:0] $end
$var reg 8 *. axi_dla_top_i/systolic_dla_top_8x8_0/inst/i_systolic_dla_top/xin_shift_start_o [7:0] $end
$var reg 16 2. axi_dla_top_i/systolic_dla_top_8x8_0/inst/i_systolic_dla_top/xin_img_height_size [15:0] $end
$var reg 8 B. axi_dla_top_i/systolic_dla_top_8x8_0/inst/i_systolic_dla_top/xin_shift_start [7:0] $end
$var reg 8 J. axi_dla_top_i/systolic_dla_top_8x8_0/inst/i_systolic_dla_top/wgt_img_size [7:0] $end
$var reg 64 R. axi_dla_top_i/systolic_dla_top_8x8_0/inst/i_systolic_dla_top/wgt_serial_output [63:0] $end
$var reg 32 4/ axi_dla_top_i/systolic_dla_top_8x8_0/inst/acc_0_bram_rddata_a [31:0] $end
$var reg 4 T/ axi_dla_top_i/systolic_dla_top_8x8_0/inst/acc_0_bram_we_a [3:0] $end
$var reg 32 X/ axi_dla_top_i/systolic_dla_top_8x8_0/inst/acc_0_bram_wrdata_a [31:0] $end
$var reg 16 x/ axi_dla_top_i/systolic_dla_top_8x8_0/inst/deacc_0_bram_addr_a [15:0] $end
$var reg 32 *0 axi_dla_top_i/systolic_dla_top_8x8_0/inst/deacc_0_bram_rddata_a [31:0] $end
$var reg 4 J0 axi_dla_top_i/systolic_dla_top_8x8_0/inst/deacc_0_bram_we_a [3:0] $end
$var reg 16 N0 axi_dla_top_i/systolic_dla_top_8x8_0/inst/acc_0_bram_addr_a [15:0] $end
$var reg 32 ^0 axi_dla_top_i/systolic_dla_top_8x8_0/inst/deacc_0_bram_wrdata_a [31:0] $end
$var reg 8 ~0 axi_dla_top_i/systolic_dla_top_8x8_0/inst/wgt_0_bram_addr_a [7:0] $end
$var reg 8 (1 axi_dla_top_i/systolic_dla_top_8x8_0/inst/wgt_0_bram_wrdata_a [7:0] $end
$var reg 4 01 axi_dla_top_i/systolic_dla_top_8x8_0/inst/tmp_wgt_0_bram_we_a [3:0] $end
$var reg 4 41 axi_dla_top_i/systolic_dla_top_8x8_0/inst/tmp_wgt_4_bram_we_a [3:0] $end
$var reg 4 81 axi_dla_top_i/systolic_dla_top_8x8_0/inst/tmp_wgt_6_bram_we_a [3:0] $end
$var reg 4 <1 axi_dla_top_i/systolic_dla_top_8x8_0/inst/tmp_wgt_3_bram_we_a [3:0] $end
$var reg 4 @1 axi_dla_top_i/systolic_dla_top_8x8_0/inst/tmp_xin_0_bram_we_a [3:0] $end
$var reg 4 D1 axi_dla_top_i/systolic_dla_top_8x8_0/inst/tmp_xin_2_bram_we_a [3:0] $end
$var reg 4 H1 axi_dla_top_i/systolic_dla_top_8x8_0/inst/tmp_xin_3_bram_we_a [3:0] $end
$var reg 4 L1 axi_dla_top_i/systolic_dla_top_8x8_0/inst/tmp_xin_4_bram_we_a [3:0] $end
$var reg 4 P1 axi_dla_top_i/systolic_dla_top_8x8_0/inst/tmp_deacc_0_bram_we_a [3:0] $end
$var reg 4 T1 axi_dla_top_i/systolic_dla_top_8x8_0/inst/tmp_xin_5_bram_we_a [3:0] $end
$var reg 4 X1 axi_dla_top_i/systolic_dla_top_8x8_0/inst/tmp_xin_6_bram_we_a [3:0] $end
$var reg 4 \1 axi_dla_top_i/systolic_dla_top_8x8_0/inst/tmp_xin_7_bram_we_a [3:0] $end
$var reg 8 `1 axi_dla_top_i/systolic_dla_top_8x8_0/inst/wgt_0_bram_rddata_a [7:0] $end
$var reg 4 h1 axi_dla_top_i/systolic_dla_top_8x8_0/inst/tmp_acc_0_bram_we_a [3:0] $end
$var reg 4 l1 axi_dla_top_i/systolic_dla_top_8x8_0/inst/tmp_wgt_1_bram_we_a [3:0] $end
$var reg 4 p1 axi_dla_top_i/systolic_dla_top_8x8_0/inst/tmp_wgt_5_bram_we_a [3:0] $end
$var reg 4 t1 axi_dla_top_i/systolic_dla_top_8x8_0/inst/tmp_wgt_7_bram_we_a [3:0] $end
$var reg 4 x1 axi_dla_top_i/systolic_dla_top_8x8_0/inst/wgt_0_bram_we_a [3:0] $end
$var reg 4 |1 axi_dla_top_i/systolic_dla_top_8x8_0/inst/tmp_xin_1_bram_we_a [3:0] $end
$var reg 4 "2 axi_dla_top_i/systolic_dla_top_8x8_0/inst/tmp_wgt_2_bram_we_a [3:0] $end
$var reg 8 &2 axi_dla_top_i/systolic_dla_top_8x8_0/inst/wgt_1_bram_wrdata_a [7:0] $end
$var reg 8 .2 axi_dla_top_i/systolic_dla_top_8x8_0/inst/wgt_2_bram_rddata_a [7:0] $end
$var reg 4 62 axi_dla_top_i/systolic_dla_top_8x8_0/inst/wgt_1_bram_we_a [3:0] $end
$var reg 8 :2 axi_dla_top_i/systolic_dla_top_8x8_0/inst/wgt_3_bram_addr_a [7:0] $end
$var reg 4 B2 axi_dla_top_i/systolic_dla_top_8x8_0/inst/wgt_3_bram_we_a [3:0] $end
$var reg 8 F2 axi_dla_top_i/systolic_dla_top_8x8_0/inst/wgt_3_bram_wrdata_a [7:0] $end
$var reg 8 N2 axi_dla_top_i/systolic_dla_top_8x8_0/inst/wgt_2_bram_wrdata_a [7:0] $end
$var reg 8 V2 axi_dla_top_i/systolic_dla_top_8x8_0/inst/wgt_1_bram_addr_a [7:0] $end
$var reg 4 ^2 axi_dla_top_i/systolic_dla_top_8x8_0/inst/wgt_2_bram_we_a [3:0] $end
$var reg 8 b2 axi_dla_top_i/systolic_dla_top_8x8_0/inst/wgt_1_bram_rddata_a [7:0] $end
$var reg 8 j2 axi_dla_top_i/systolic_dla_top_8x8_0/inst/wgt_3_bram_rddata_a [7:0] $end
$var reg 8 r2 axi_dla_top_i/systolic_dla_top_8x8_0/inst/wgt_2_bram_addr_a [7:0] $end
$var reg 8 z2 axi_dla_top_i/systolic_dla_top_8x8_0/inst/wgt_4_bram_rddata_a [7:0] $end
$var reg 8 $3 axi_dla_top_i/systolic_dla_top_8x8_0/inst/wgt_5_bram_addr_a [7:0] $end
$var reg 8 ,3 axi_dla_top_i/systolic_dla_top_8x8_0/inst/wgt_4_bram_wrdata_a [7:0] $end
$var reg 4 43 axi_dla_top_i/systolic_dla_top_8x8_0/inst/wgt_4_bram_we_a [3:0] $end
$var reg 8 83 axi_dla_top_i/systolic_dla_top_8x8_0/inst/wgt_6_bram_addr_a [7:0] $end
$var reg 8 @3 axi_dla_top_i/systolic_dla_top_8x8_0/inst/wgt_6_bram_rddata_a [7:0] $end
$var reg 4 H3 axi_dla_top_i/systolic_dla_top_8x8_0/inst/wgt_6_bram_we_a [3:0] $end
$var reg 8 L3 axi_dla_top_i/systolic_dla_top_8x8_0/inst/wgt_4_bram_addr_a [7:0] $end
$var reg 8 T3 axi_dla_top_i/systolic_dla_top_8x8_0/inst/wgt_5_bram_rddata_a [7:0] $end
$var reg 4 \3 axi_dla_top_i/systolic_dla_top_8x8_0/inst/wgt_5_bram_we_a [3:0] $end
$var reg 8 `3 axi_dla_top_i/systolic_dla_top_8x8_0/inst/wgt_5_bram_wrdata_a [7:0] $end
$var reg 8 h3 axi_dla_top_i/systolic_dla_top_8x8_0/inst/wgt_6_bram_wrdata_a [7:0] $end
$var reg 4 p3 axi_dla_top_i/systolic_dla_top_8x8_0/inst/xin_0_bram_we_a [3:0] $end
$var reg 4 t3 axi_dla_top_i/systolic_dla_top_8x8_0/inst/xin_1_bram_we_a [3:0] $end
$var reg 8 x3 axi_dla_top_i/systolic_dla_top_8x8_0/inst/wgt_7_bram_wrdata_a [7:0] $end
$var reg 8 "4 axi_dla_top_i/systolic_dla_top_8x8_0/inst/xin_0_bram_rddata_a [7:0] $end
$var reg 4 *4 axi_dla_top_i/systolic_dla_top_8x8_0/inst/wgt_7_bram_we_a [3:0] $end
$var reg 8 .4 axi_dla_top_i/systolic_dla_top_8x8_0/inst/wgt_sram_r_en [7:0] $end
$var reg 8 64 axi_dla_top_i/systolic_dla_top_8x8_0/inst/xin_0_bram_wrdata_a [7:0] $end
$var reg 16 >4 axi_dla_top_i/systolic_dla_top_8x8_0/inst/xin_0_bram_addr_a [15:0] $end
$var reg 16 N4 axi_dla_top_i/systolic_dla_top_8x8_0/inst/xin_1_bram_addr_a [15:0] $end
$var reg 8 ^4 axi_dla_top_i/systolic_dla_top_8x8_0/inst/wgt_7_bram_rddata_a [7:0] $end
$var reg 8 f4 axi_dla_top_i/systolic_dla_top_8x8_0/inst/xin_1_bram_rddata_a [7:0] $end
$var reg 8 n4 axi_dla_top_i/systolic_dla_top_8x8_0/inst/xin_1_bram_wrdata_a [7:0] $end
$var reg 8 v4 axi_dla_top_i/systolic_dla_top_8x8_0/inst/wgt_7_bram_addr_a [7:0] $end
$var reg 16 ~4 axi_dla_top_i/systolic_dla_top_8x8_0/inst/xin_3_bram_addr_a [15:0] $end
$var reg 16 05 axi_dla_top_i/systolic_dla_top_8x8_0/inst/xin_4_bram_addr_a [15:0] $end
$var reg 4 @5 axi_dla_top_i/systolic_dla_top_8x8_0/inst/xin_4_bram_we_a [3:0] $end
$var reg 4 D5 axi_dla_top_i/systolic_dla_top_8x8_0/inst/xin_2_bram_we_a [3:0] $end
$var reg 8 H5 axi_dla_top_i/systolic_dla_top_8x8_0/inst/xin_2_bram_wrdata_a [7:0] $end
$var reg 8 P5 axi_dla_top_i/systolic_dla_top_8x8_0/inst/xin_3_bram_rddata_a [7:0] $end
$var reg 8 X5 axi_dla_top_i/systolic_dla_top_8x8_0/inst/xin_2_bram_rddata_a [7:0] $end
$var reg 8 `5 axi_dla_top_i/systolic_dla_top_8x8_0/inst/xin_4_bram_rddata_a [7:0] $end
$var reg 8 h5 axi_dla_top_i/systolic_dla_top_8x8_0/inst/xin_4_bram_wrdata_a [7:0] $end
$var reg 4 p5 axi_dla_top_i/systolic_dla_top_8x8_0/inst/xin_3_bram_we_a [3:0] $end
$var reg 16 t5 axi_dla_top_i/systolic_dla_top_8x8_0/inst/xin_2_bram_addr_a [15:0] $end
$var reg 8 &6 axi_dla_top_i/systolic_dla_top_8x8_0/inst/xin_3_bram_wrdata_a [7:0] $end
$var reg 16 .6 axi_dla_top_i/systolic_dla_top_8x8_0/inst/xin_6_bram_addr_a [15:0] $end
$var reg 4 >6 axi_dla_top_i/systolic_dla_top_8x8_0/inst/xin_7_bram_we_a [3:0] $end
$var reg 4 B6 axi_dla_top_i/systolic_dla_top_8x8_0/inst/xin_6_bram_we_a [3:0] $end
$var reg 8 F6 axi_dla_top_i/systolic_dla_top_8x8_0/inst/xin_6_bram_wrdata_a [7:0] $end
$var reg 8 N6 axi_dla_top_i/systolic_dla_top_8x8_0/inst/xin_6_bram_rddata_a [7:0] $end
$var reg 8 V6 axi_dla_top_i/systolic_dla_top_8x8_0/inst/xin_5_bram_rddata_a [7:0] $end
$var reg 8 ^6 axi_dla_top_i/systolic_dla_top_8x8_0/inst/xin_5_bram_wrdata_a [7:0] $end
$var reg 16 f6 axi_dla_top_i/systolic_dla_top_8x8_0/inst/xin_7_bram_addr_a [15:0] $end
$var reg 4 v6 axi_dla_top_i/systolic_dla_top_8x8_0/inst/xin_5_bram_we_a [3:0] $end
$var reg 8 z6 axi_dla_top_i/systolic_dla_top_8x8_0/inst/xin_7_bram_wrdata_a [7:0] $end
$var reg 8 $7 axi_dla_top_i/systolic_dla_top_8x8_0/inst/xin_7_bram_rddata_a [7:0] $end
$var reg 16 ,7 axi_dla_top_i/systolic_dla_top_8x8_0/inst/xin_5_bram_addr_a [15:0] $end
$var reg 8 <7 axi_dla_top_i/systolic_dla_top_8x8_0/inst/xin_sram_r_en [7:0] $end
$var reg 1 D7 axi_dla_top_i/systolic_dla_top_8x8_0/inst/acc_0_bram_clk_a $end
$var reg 1 E7 axi_dla_top_i/systolic_dla_top_8x8_0/inst/acc_0_bram_en_a $end
$var reg 1 F7 axi_dla_top_i/systolic_dla_top_8x8_0/inst/i_systolic_dla_top/acc_shift_idle $end
$var reg 1 G7 axi_dla_top_i/systolic_dla_top_8x8_0/inst/i_systolic_dla_top/acc_shift_start $end
$var reg 1 H7 axi_dla_top_i/systolic_dla_top_8x8_0/inst/i_systolic_dla_top/acc_shift_start_o $end
$var reg 1 I7 axi_dla_top_i/systolic_dla_top_8x8_0/inst/acc_sram_r_en $end
$var reg 1 J7 axi_dla_top_i/systolic_dla_top_8x8_0/inst/deacc_0_bram_en_a $end
$var reg 1 K7 axi_dla_top_i/systolic_dla_top_8x8_0/inst/deacc_0_bram_rst_a $end
$var reg 1 L7 axi_dla_top_i/systolic_dla_top_8x8_0/inst/i_systolic_dla_top/deacc_shift_idle $end
$var reg 1 M7 axi_dla_top_i/systolic_dla_top_8x8_0/inst/i_systolic_dla_top/deacc_shift_start $end
$var reg 1 N7 axi_dla_top_i/systolic_dla_top_8x8_0/inst/i_systolic_dla_top/deacc_shift_start_o $end
$var reg 1 O7 axi_dla_top_i/systolic_dla_top_8x8_0/inst/deacc_sram_w_en $end
$var reg 1 P7 axi_dla_top_i/systolic_dla_top_8x8_0/inst/i_systolic_dla_top/output_channel_shift_ctrl $end
$var reg 1 Q7 axi_dla_top_i/systolic_dla_top_8x8_0/inst/i_systolic_dla_top/penable $end
$var reg 1 R7 axi_dla_top_i/systolic_dla_top_8x8_0/inst/i_systolic_dla_top/pready $end
$var reg 1 S7 axi_dla_top_i/systolic_dla_top_8x8_0/inst/i_systolic_dla_top/psel $end
$var reg 1 T7 axi_dla_top_i/systolic_dla_top_8x8_0/inst/i_systolic_dla_top/pwrite $end
$var reg 1 U7 axi_dla_top_i/systolic_dla_top_8x8_0/inst/i_systolic_dla_top/reg_idle $end
$var reg 1 V7 axi_dla_top_i/systolic_dla_top_8x8_0/inst/i_systolic_dla_top/reg_read $end
$var reg 1 W7 axi_dla_top_i/systolic_dla_top_8x8_0/inst/i_systolic_dla_top/reg_write $end
$var reg 1 X7 axi_dla_top_i/systolic_dla_top_8x8_0/inst/i_systolic_dla_top/reset_n $end
$var reg 1 Y7 axi_dla_top_i/systolic_dla_top_8x8_0/inst/tmp_acc_0_bram_en_a $end
$var reg 1 Z7 axi_dla_top_i/systolic_dla_top_8x8_0/inst/tmp_deacc_0_bram_en_a $end
$var reg 1 [7 axi_dla_top_i/systolic_dla_top_8x8_0/inst/tmp_wgt_0_bram_en_a $end
$var reg 1 \7 axi_dla_top_i/systolic_dla_top_8x8_0/inst/tmp_wgt_1_bram_en_a $end
$var reg 1 ]7 axi_dla_top_i/systolic_dla_top_8x8_0/inst/tmp_wgt_2_bram_en_a $end
$var reg 1 ^7 axi_dla_top_i/systolic_dla_top_8x8_0/inst/tmp_wgt_3_bram_en_a $end
$var reg 1 _7 axi_dla_top_i/systolic_dla_top_8x8_0/inst/tmp_wgt_4_bram_en_a $end
$var reg 1 `7 axi_dla_top_i/systolic_dla_top_8x8_0/inst/tmp_wgt_5_bram_en_a $end
$var reg 1 a7 axi_dla_top_i/systolic_dla_top_8x8_0/inst/tmp_wgt_6_bram_en_a $end
$var reg 1 b7 axi_dla_top_i/systolic_dla_top_8x8_0/inst/tmp_wgt_7_bram_en_a $end
$var reg 1 c7 axi_dla_top_i/systolic_dla_top_8x8_0/inst/tmp_xin_0_bram_en_a $end
$var reg 1 d7 axi_dla_top_i/systolic_dla_top_8x8_0/inst/tmp_xin_1_bram_en_a $end
$var reg 1 e7 axi_dla_top_i/systolic_dla_top_8x8_0/inst/tmp_xin_2_bram_en_a $end
$var reg 1 f7 axi_dla_top_i/systolic_dla_top_8x8_0/inst/tmp_xin_3_bram_en_a $end
$var reg 1 g7 axi_dla_top_i/systolic_dla_top_8x8_0/inst/tmp_xin_4_bram_en_a $end
$var reg 1 h7 axi_dla_top_i/systolic_dla_top_8x8_0/inst/tmp_xin_5_bram_en_a $end
$var reg 1 i7 axi_dla_top_i/systolic_dla_top_8x8_0/inst/tmp_xin_6_bram_en_a $end
$var reg 1 j7 axi_dla_top_i/systolic_dla_top_8x8_0/inst/tmp_xin_7_bram_en_a $end
$var reg 1 k7 axi_dla_top_i/systolic_dla_top_8x8_0/inst/wgt_0_bram_clk_a $end
$var reg 1 l7 axi_dla_top_i/systolic_dla_top_8x8_0/inst/wgt_0_bram_en_a $end
$var reg 1 m7 axi_dla_top_i/systolic_dla_top_8x8_0/inst/wgt_1_bram_clk_a $end
$var reg 1 n7 axi_dla_top_i/systolic_dla_top_8x8_0/inst/wgt_1_bram_en_a $end
$var reg 1 o7 axi_dla_top_i/systolic_dla_top_8x8_0/inst/wgt_2_bram_clk_a $end
$var reg 1 p7 axi_dla_top_i/systolic_dla_top_8x8_0/inst/wgt_2_bram_en_a $end
$var reg 1 q7 axi_dla_top_i/systolic_dla_top_8x8_0/inst/wgt_3_bram_clk_a $end
$var reg 1 r7 axi_dla_top_i/systolic_dla_top_8x8_0/inst/wgt_3_bram_en_a $end
$var reg 1 s7 axi_dla_top_i/systolic_dla_top_8x8_0/inst/wgt_4_bram_clk_a $end
$var reg 1 t7 axi_dla_top_i/systolic_dla_top_8x8_0/inst/wgt_4_bram_en_a $end
$var reg 1 u7 axi_dla_top_i/systolic_dla_top_8x8_0/inst/wgt_5_bram_clk_a $end
$var reg 1 v7 axi_dla_top_i/systolic_dla_top_8x8_0/inst/wgt_5_bram_en_a $end
$var reg 1 w7 axi_dla_top_i/systolic_dla_top_8x8_0/inst/wgt_6_bram_clk_a $end
$var reg 1 x7 axi_dla_top_i/systolic_dla_top_8x8_0/inst/wgt_6_bram_en_a $end
$var reg 1 y7 axi_dla_top_i/systolic_dla_top_8x8_0/inst/wgt_7_bram_clk_a $end
$var reg 1 z7 axi_dla_top_i/systolic_dla_top_8x8_0/inst/wgt_7_bram_en_a $end
$var reg 1 {7 axi_dla_top_i/systolic_dla_top_8x8_0/inst/i_systolic_dla_top/wgt_shift_idle $end
$var reg 1 |7 axi_dla_top_i/systolic_dla_top_8x8_0/inst/i_systolic_dla_top/wgt_shift_start $end
$var reg 1 }7 axi_dla_top_i/systolic_dla_top_8x8_0/inst/xin_0_bram_clk_a $end
$var reg 1 ~7 axi_dla_top_i/systolic_dla_top_8x8_0/inst/xin_0_bram_en_a $end
$var reg 1 !8 axi_dla_top_i/systolic_dla_top_8x8_0/inst/xin_1_bram_clk_a $end
$var reg 1 "8 axi_dla_top_i/systolic_dla_top_8x8_0/inst/xin_1_bram_en_a $end
$var reg 1 #8 axi_dla_top_i/systolic_dla_top_8x8_0/inst/xin_2_bram_clk_a $end
$var reg 1 $8 axi_dla_top_i/systolic_dla_top_8x8_0/inst/xin_2_bram_en_a $end
$var reg 1 %8 axi_dla_top_i/systolic_dla_top_8x8_0/inst/xin_3_bram_clk_a $end
$var reg 1 &8 axi_dla_top_i/systolic_dla_top_8x8_0/inst/xin_3_bram_en_a $end
$var reg 1 '8 axi_dla_top_i/systolic_dla_top_8x8_0/inst/xin_4_bram_clk_a $end
$var reg 1 (8 axi_dla_top_i/systolic_dla_top_8x8_0/inst/xin_4_bram_en_a $end
$var reg 1 )8 axi_dla_top_i/systolic_dla_top_8x8_0/inst/xin_5_bram_clk_a $end
$var reg 1 *8 axi_dla_top_i/systolic_dla_top_8x8_0/inst/xin_5_bram_en_a $end
$var reg 1 +8 axi_dla_top_i/systolic_dla_top_8x8_0/inst/xin_6_bram_clk_a $end
$var reg 1 ,8 axi_dla_top_i/systolic_dla_top_8x8_0/inst/xin_6_bram_en_a $end
$var reg 1 -8 axi_dla_top_i/systolic_dla_top_8x8_0/inst/xin_7_bram_clk_a $end
$var reg 1 .8 axi_dla_top_i/systolic_dla_top_8x8_0/inst/xin_7_bram_en_a $end
$var reg 1 /8 _TRIGGER $end
$var reg 1 08 _WINDOW $end
$var reg 1 18 _GAP $end
$upscope $end
$enddefinitions $end
#0
$dumpvars
b111110000000000011110000000 "
b0 B
b0 b
b0 $"
b0 ,"
b0 L"
0l"
0m"
b0 n"
b11111111111111111111111111111111 0#
b0 P#
b0 p#
b100000111100 2$
b111110000000000011110000000 B$
b111110000000000011110000000 b$
b0 $%
b1111111111111111111111111111111111111111111111111111111111111111 &%
b0 f%
b0 H&
b0 *'
b0 j'
b0 ,(
b100000111100 L(
b0 \(
b111 |(
b0 >)
b0 N)
b0 n)
b0 0*
b1111 P*
b0 `*
b1111 "+
b1111 2+
b111 R+
b111 r+
b0 4,
b11 t,
b0 v,
b0 ~,
b11111111 (-
b111 0-
b0 @-
b0 H-
b0 *.
b111 2.
b0 B.
b111 J.
b100000 R.
b0 4/
b0 T/
b0 X/
b0 x/
b0 *0
b0 J0
b0 N0
b0 ^0
b11111111 ~0
b111111 (1
b0 01
b0 41
b0 81
b0 <1
b0 @1
b0 D1
b0 H1
b0 L1
b0 P1
b0 T1
b0 X1
b0 \1
b0 `1
b0 h1
b0 l1
b0 p1
b0 t1
b0 x1
b0 |1
b0 "2
b0 &2
b0 .2
b0 62
b11111111 :2
b0 B2
b0 F2
b0 N2
b11111111 V2
b0 ^2
b0 b2
b0 j2
b11111111 r2
b0 z2
b11111111 $3
b0 ,3
b0 43
b11111111 83
b0 @3
b0 H3
b11111111 L3
b0 T3
b0 \3
b0 `3
b0 h3
b0 p3
b0 t3
b0 x3
b1 "4
b0 *4
b0 .4
b1 64
b0 >4
b0 N4
b0 ^4
b0 f4
b0 n4
b11111111 v4
b0 ~4
b0 05
b0 @5
b0 D5
b0 H5
b0 P5
b0 X5
b1 `5
b1 h5
b0 p5
b0 t5
b0 &6
b0 .6
b0 >6
b0 B6
b0 F6
b0 N6
b0 V6
b0 ^6
b0 f6
b0 v6
b0 z6
b0 $7
b0 ,7
b0 <7
0D7
0E7
1F7
0G7
0H7
0I7
0J7
1K7
1L7
0M7
0N7
0O7
0P7
0Q7
1R7
0S7
1T7
1U7
0V7
0W7
1X7
0Y7
0Z7
0[7
0\7
0]7
0^7
0_7
0`7
0a7
0b7
0c7
0d7
0e7
0f7
0g7
0h7
0i7
0j7
0k7
0l7
0m7
0n7
0o7
0p7
0q7
0r7
0s7
0t7
0u7
0v7
0w7
0x7
0y7
0z7
1{7
0|7
0}7
0~7
0!8
0"8
0#8
0$8
0%8
0&8
0'8
0(8
0)8
0*8
0+8
0,8
0-8
0.8
0/8
108
018
$end
#4094
b0 2$
b10 \(
1S7
#4095
b11011110101011010000000000000000 "
b10 b$
b0 L(
1Q7
1W7
#4096
b11011110101011010000000000000000 B$
b10 $%
b0 \(
b1 B.
1G7
1M7
0Q7
0S7
0W7
1/8
#4097
b0 $%
b0 B.
0G7
0M7
#4098
b1 t,
b1 ~,
b11111110 (-
b1 <7
0F7
0L7
1~7
1"8
1$8
1&8
1(8
1*8
1,8
1.8
#4100
b1 B
b1 p#
b1 f%
b1 *'
b1 j'
b1 N)
b1 4,
b1 H-
#4101
b10000 B
b10 p#
b100000000 f%
b100000000 *'
b10001 j'
b11 N)
b10 4,
b11 H-
#4102
b100000000 B
b100 p#
b10000000000000000 f%
b10000000000000000 *'
b100010001 j'
b111 N)
b100 4,
b111 H-
#4103
b1000000000000 B
b1000 p#
b1000000000000000000000000 f%
b1000000000000000000000000 *'
b1000100010001 j'
b1111 N)
b1000 4,
b1111 H-
#4104
b10000000000000000 B
b10000 p#
b100000000000000000000000000000000 f%
b100000000000000000000000000000000 *'
b10001000100010001 j'
b11111 N)
b10000 4,
b11111 H-
b1 *.
b10 B.
#4105
b100000000000000000000 B
b100000 p#
b10000000000000000000000000000000000000000 f%
b10000000000000000000000000000000000000000 *'
b100010001000100010001 j'
b111111 N)
b100000 4,
b111111 H-
b0 *.
b0 B.
#4106
b1000000000000000000000000 B
b1000000 p#
b1000000000000000000000000000000000000000000000000 f%
b1000000000000000000000000000000000000000000000000 *'
b1000100010001000100010001 j'
b1111111 N)
b1000000 4,
b11 ~,
b11111100 (-
b1111111 H-
b1 >4
b11 <7
#4107
b10000000000000000000000000000 B
b10000000 p#
b100000000000000000000000000000000000000000000000000000000 f%
b100000000000000000000000000000000000000000000000000000000 *'
b10001000100010001000100010001 j'
b11111111 N)
b10000000 4,
b11111111 H-
#4108
b10 B
b1 n"
b100000000 p#
b1 f%
b1 *'
b10001000100010001000100010011 j'
b1 ,(
b111111111 N)
b1 n)
b1 4,
b111111111 H-
